government = feudal_monarchy
government_rank = 1
primary_culture = arannese
religion = regent_court
technology_group = tech_cannorian
national_focus = DIP
capital = 326

1422.1.1 = { set_country_flag = lilac_wars_rose_party }

1439.5.2 = {
	monarch = {
		name = "Benar V"
		dynasty = "of Gisden"
		birth_date = 1433.1.6
		adm = 0
		dip = 2
		mil = 1
	}
}